<?xml version="1.0" encoding="utf-8"?>
<!-- Generator: Adobe Illustrator 21.0.2, SVG Export Plug-In . SVG Version: 6.00 Build 0)  -->
<svg version="1.1" id="CFC" xmlns="http://www.w3.org/2000/svg" xmlns:xlink="http://www.w3.org/1999/xlink" x="0px" y="0px"
	 viewBox="0 0 232.8 214.9" style="enable-background:new 0 0 232.8 214.9;" xml:space="preserve">
<style type="text/css">
	.st0{display:none;}
	.st1{fill:#222222;}
</style>
<g id="OJggIj.tif" class="st0">
	
		<image style="display:inline;overflow:visible;enable-background:new    ;" width="802" height="259" id="Layer_0_1_" xlink:href="21CE909CCEA30D3E.png"  transform="matrix(0.9996 0 0 0.9996 -9.554 -0.6531)">
	</image>
</g>
<path class="st1" d="M118.5,17.2c0,0-8.4,6.8-11.3,13.6c0,0-3.5,7.6-4.1,12.9c-0.5,4.8-0.4,6.3-0.1,11c0.3,4.5,1.6,10,3.4,15
	c1.8,5,6,13.6,8.1,16.3c2.1,2.6,5.2,6.5,7.6,8.9c2.4,2.4,6.6,5.8,6.6,5.8l-23.6,17.8l19.1,15l4.5-13.7c0,0,2.5-7.6,6.6-9.4
	c1.9-0.9,2.9-0.8,6-0.5s6.6,1,12.1,3.9s13.1,3.9,18.1,3.4s23.9-5.2,30.2-15.5c6.3-10.2,7.6-19.4,7.6-20.7s-7,10.5-18.9,8.9
	c-2.1-0.3-9.7-2.1-17.1-2.1c-7.3,0-8.7,0-8.7,0s-0.2-4.3,3.8-4.9c0,0,2.7-0.5,5.1-1.3c2.4-0.8,2.4-1.5,2.4-1.5s-3.4-1.6-5.9-2.7
	c-2.6-1.1-5.9-2.8-9.1-1.6c-3.1,1.2-8.2,6.2-8.8,5.6c-0.3-0.3-1-3-1.5-5.1c-0.2-0.8-1-3.2-1.4-4c-1.6-3.7-7.1-12-12.7-16.2
	c-7.8-5.9-16.3-14.4-18.5-19.7C116,31.1,116.4,22.6,118.5,17.2z"/>
<g>
	<path class="st1" d="M71.6,160.3c-1.3,0.3-2.9,0.7-4.6,1c1.1,1.1,2.2,2.2,3.3,3.3c1.8-0.2,3.7-0.3,5.5-0.4
		C74.4,162.9,73,161.6,71.6,160.3z"/>
	<g>
		<path class="st1" d="M84,170.4c-1-0.7-2-1.4-3-2.1c-1.1,0.2-2.3,0.4-3.7,0.6c0,0-0.7,0.1-1.7,0.3c1.1,0.9,2.3,1.8,3.5,2.6
			C80.6,171.3,82.2,170.8,84,170.4z"/>
		<path class="st1" d="M100.1,179.1c-2.5-1.1-5-2.2-7.4-3.5c-2.1,0.2-4.4,0.6-6.5,0.9c2.1,1.3,4.3,2.5,6.6,3.6
			C94.4,179.9,97.1,179.5,100.1,179.1z"/>
	</g>
</g>
<path class="st1" d="M116.4,184.2c-2.6-0.5-5.1-1.2-7.5-1.9c-2.1,0.4-4.1,0.8-5.9,1.1c-0.6,0.1-1.3,0.3-2,0.4c2.5,1,5.2,1.9,7.8,2.6
	c2.1-0.8,3.8-1.4,5-1.7C114.5,184.5,115.4,184.3,116.4,184.2z"/>
<g>
	<path class="st1" d="M68.3,40.4c0,0-2,3.8-2.5,7.5s-0.7,7.7-0.2,10.4c0.4,2.7,1.6,5.2,5.5,8.2c3.9,3,13.6,9.9,14.8,11.2
		C87,79,88.7,81,88.7,81s-2.1-5-2.8-6.4c-0.6-1.3-3.1-7.9-5.1-9.4c-2.2-1.6-7.8-5.6-9.3-7.4c-2.1-2.7-3-13.1-3-13.1L68.3,40.4z"/>
	<path class="st1" d="M82.4,22l-0.9,9.6c0,0,0,6.6-0.2,8.7c-0.2,2-1.5,6.1-1.4,9.8c0.1,3.8,0.8,8.4,1.5,9.9c0,0,0.9,1.3,2,2.4
		c1.1,1.1,1.1,1.1,1.1,1.1s-0.8-4.1-0.6-8.5c0.1-4.3,0.3-8,1.1-10.5c0.7-2.5,0.9-3.2,0.9-5.6c0-2.4-1.6-7.5-1.9-9
		C83.5,28.5,82.4,22,82.4,22z"/>
	<path class="st1" d="M92.1,36.5c0,0,0,4.1-0.8,8.5s-1.8,7-1.9,10.6c-0.1,3.6,0.2,9.2,0.2,9.2l0.8,9.2c0,0,1.1,5.6,2.1,7.4
		c1,1.7,2.1,3.1,2.1,3.1l-0.4-5.7l-1.1-11.3c0,0-0.4-4.8,0.3-9c0.7-4.2,2.4-7.8,1.8-12C94.5,42,92.1,36.5,92.1,36.5z"/>
	<path d="M64,70c0,0,6.4,4.8,11.9,7.9c5.5,3.1,9.9,4.7,13,7.3c3.1,2.6,8,8.9,8,8.9s-14.6-6.3-19.3-9.9S68.3,76.1,64,70z"/>
	<path d="M66.7,84.7c0,0,1.1,2.3,3.4,4.1s7.7,3.9,12.6,5.8c4.8,1.9,7.2,1.7,14.5,7.3c7.3,5.6,9.8,10.3,9.8,10.3s-5.6-2.3-9.8-4.6
		c-4.2-2.3-10.5-4-16.4-7.9C74.8,95.8,70.8,94.1,66.7,84.7z"/>
	<path d="M103.5,118.5l0.5-0.4c-4-2.6-8.2-5.2-11.2-6.7c-7.4-3.7-25.6-3.9-25.6-3.9c-2.7-0.1-2.5,1,10.1,3.5
		c12.6,2.6,26.5,10.5,26.5,10.5s5.9,3.1,9.4,4.6L103.5,118.5z"/>
	<path d="M82.6,116.8c0,0,7.4,5.8,12.5,7.7c5.1,1.9,9.5,1.8,16.2,6.2s17.3,15.2,17.3,15.2l-8.9-4.9c0,0-12.9-8.6-18.6-10.2
		C95.2,129.2,90,125.7,82.6,116.8z"/>
	<path d="M84.7,134.3c0,0,19.2,5,23.5,7.2c4.3,2.1,17.5,10,20.4,12.5c2.9,2.5,2.9,2.5,2.9,2.5s-10-5-16.1-8.1
		c-6.1-3.1-14.2-5.3-20.2-8C89.2,137.7,84.7,134.3,84.7,134.3z"/>
	<path d="M102.5,54.7c0,0-0.8,8.3-1.7,10.3c-0.9,2-2.1,8.6-2,12.5c0.2,3.9,1.7,15.6,1.7,15.6s2.4-6.7,2.7-15.3S103,58.1,102.5,54.7z
		"/>
	<path d="M106.2,93.2c1.1,6.6,2.9,14.9,3.5,15.4c0.6,0.5,1.5-7,1.5-9.1s-1-9.7-1.6-15.2c-0.2-1.5-0.1-3.2-0.1-4.9
		c-0.4-0.8-0.8-1.5-1.1-2.3l-2.2,6.4C106.3,83.4,105.2,86.6,106.2,93.2z"/>
	<path d="M118.3,92.2c-0.8-0.9-1.6-1.9-2.3-2.8c-0.9,3.5-1.9,8.1-1.9,10.8c0,3.4,0.6,7.3,1,9.5l2.3-1.7
		C117.9,106,118.9,101.2,118.3,92.2z"/>
	<g>
		<path d="M124.9,98.9l-1,4.2l3.1-2.3C126.5,100.2,125.8,99.6,124.9,98.9z"/>
		<path d="M123.1,133.9c0.3,0.8,0.6,1.3,0.6,1.3l0.1-0.8L123.1,133.9z"/>
	</g>
	<path d="M134.9,117.6l-4.3,10.8c0,0-1.3,4.3-0.7,10.4c0.6,6.1,2.1,9.6,2.1,9.6l0.4,1.2l0.3-7.6C132.6,142,133.2,126.2,134.9,117.6z
		"/>
	<path d="M144.8,124.4c0,0-7.1,8.9-7.8,11.8c-0.7,2.9-1.5,10.2-1.2,16.1s-0.1,7.1-0.1,7.1l2.1-8.6
		C137.8,150.8,140.8,132.9,144.8,124.4z"/>
	<g>
		<path d="M149.6,169.6c2.4-6.6,5.1-16.6,2.4-23.5c0,0-3.3,8.1-4.3,13.4c-0.3,1.6-0.5,3.6-0.6,5.6
			C148.1,166.7,148.9,168.2,149.6,169.6z"/>
		<path d="M146.7,174.3c0,0.2,0,0.2,0,0.2l0.1,1.8c0,0,0.1-0.3,0.4-0.8C147,175.1,146.8,174.7,146.7,174.3z"/>
	</g>
	<g>
		<path d="M100.1,151.5c-4.8-1.2-8.3-2.1-8.3-2.1c3.4,1.4,6.3,2.6,8.8,3.7L100.1,151.5z"/>
		<g>
			<g>
				<g>
					<path d="M130.9,163.4c-0.9-0.7-1.9-1.5-2.8-2.1c1,2.3,1.9,4.6,2.6,6.3c0.7,0.4,1.4,0.7,2,1C132.1,166.9,131.4,165,130.9,163.4z
						"/>
				</g>
				<path d="M123.5,162.4c0-0.8-0.1-1.6-0.2-2.6c-0.1-0.5-0.2-1.1-0.4-1.7c-0.2-0.1-0.3-0.1-0.5-0.2c-1.3-0.5-3.5-1.2-6.2-2
					c0.7,1.8,1.5,3.5,2.2,5.2c1.5,0.8,3.1,1.7,5,2.7C123.5,163.3,123.5,162.8,123.5,162.4z"/>
			</g>
			<path d="M110.8,154.4c-2.1-0.6-4.2-1.1-6.3-1.7c0.6,0.9,1.2,1.9,1.7,2.8c1.9,0.8,3.4,1.4,4.9,2.1
				C111,156.6,110.9,155.5,110.8,154.4z"/>
		</g>
	</g>
	<path d="M159,156.1c0,0-1.3,6.1-3.5,12.3c-1.2,3.5-2.4,7-3.2,9.5c0.1,0.6,0.1,1,0.1,1l0,0.5l3.9-5.8
		C156.4,173.6,160.4,168,159,156.1z"/>
</g>
<g>
	<path class="st1" d="M0,124.8c0,0,0.7,4.2,2.5,7.5s4.1,6.5,6.1,8.4c1.9,1.9,4.4,3.2,9.3,3.2s16.8-0.3,18.6,0
		c1.7,0.3,4.2,0.9,4.2,0.9s-4.7-2.7-6.1-3.4c-1.3-0.7-7.2-4.4-9.8-4.4c-2.7,0-9.6,0.3-11.9-0.3c-3.3-0.9-10.3-8.6-10.3-8.6L0,124.8z
		"/>
	<path class="st1" d="M0,101.6l5.1,8.2c0,0,4,5.3,5.1,7.1c1.1,1.7,2.5,5.7,4.8,8.7c2.4,3,5.7,6.2,7.2,7c0,0,1.5,0.5,3,0.7
		s1.5,0.2,1.5,0.2s-3.1-2.8-5.6-6.4c-2.5-3.5-4.6-6.6-5.5-9s-1.2-3.1-2.7-5s-5.8-5-6.9-6S0,101.6,0,101.6z"/>
	<path class="st1" d="M16.5,107.3c0,0,2.5,3.3,4.5,7.2s2.8,6.7,4.9,9.6c2.1,2.9,5.7,7.2,5.7,7.2l6.2,6.8c0,0,4.3,3.8,6.1,4.6
		c1.8,0.8,3.5,1.2,3.5,1.2l-3.8-4.3l-7.7-8.4c0,0-3.2-3.6-5.2-7.4c-2-3.8-2.8-7.7-5.8-10.7C21.8,110.2,16.5,107.3,16.5,107.3z"/>
	<path d="M14.5,151c0,0,8,0,14.2-0.9s10.8-2.3,14.8-2.1s11.8,2.3,11.8,2.3s-15.4,3.8-21.4,3.8S21.6,153.2,14.5,151z"/>
	<path d="M25.4,161.1c0,0,2.3,1.2,5.2,1.2s8.5-1.6,13.5-3c5-1.4,6.8-3,16-3s14.1,2.3,14.1,2.3s-5.9,1.6-10.6,2.3
		c-4.7,0.7-10.8,3.1-17.9,3.6C38.6,165,34.4,166.1,25.4,161.1z"/>
	<path d="M39.6,178.9c0,0,14.6-10.8,22.7-12.3c8.2-1.6,25.9-2.2,27.4-1.6c1.6,0.6-12.6,3-12.6,3s-15.9,2.1-27.4,7.7
		C38.2,181.2,37.4,180.5,39.6,178.9z"/>
	<path d="M57.5,177c0,0,9.4,0.2,14.6-1.4c5.2-1.6,8.7-4.3,16.7-4.9c8-0.5,22.9,1.6,22.9,1.6l-10.1,1.5c0,0-15.4,0.9-21,3.2
		C75,179.3,68.8,179.6,57.5,177z"/>
	<path d="M69.8,189.7c0,0,18.4-7.6,23.1-8.5c4.7-0.9,20-2.6,23.8-2.4c3.8,0.3,3.8,0.3,3.8,0.3s-11.1,2.1-17.8,3.3
		s-14.5,4.3-20.9,5.8S69.8,189.7,69.8,189.7z"/>
	<path d="M35.8,115.6c0,0,4.4,7.1,4.9,9.2s3.5,8.1,6,11.2c2.5,3,10.8,11.4,10.8,11.4s-2.1-6.7-7.1-13.8S38.3,117.9,35.8,115.6z"/>
	<path d="M52,123.6l4.2,12.5c0,0,1,3.2,5.8,7.8s11.3,10.1,12.1,10.2c0.8,0.1-3-6.4-4.3-8.1c-1.3-1.7-6.7-7.1-10.4-11.2
		C55.8,130.9,52,123.6,52,123.6z"/>
	<path d="M65.5,129.9c0,0,3.9,10.9,7,14.9s7.9,8.1,7.9,8.1l1.9,1.9l-2-4.7C80.3,150.1,78.9,143.3,65.5,129.9z"/>
	<path d="M78.8,133.5l5.8,13c0,0,5.6,10.9,8.5,14.2c2.9,3.3,8.3,6.2,8.3,6.2l-3.6-7c0,0-3.5-9.3-9.9-17.5
		C81.4,134.1,78.8,133.5,78.8,133.5z"/>
	<path d="M99.6,146.1l3.1,11.2c0,0,1.5,4.2,5.8,8.7s7.4,6.4,7.4,6.4l1,0.7l-4.4-6.3C112.6,166.9,103.6,153.9,99.6,146.1z"/>
	<path d="M111.7,145.5c0,0-0.2,11.4,0.9,14.1c1.2,2.8,5,9,8.7,13.5c3.8,4.5,4.2,5.7,4.2,5.7l-3.5-8.1
		C122.1,170.7,113.7,154.7,111.7,145.5z"/>
	<path d="M119.9,149.3c0,0,3.8,6.4,4.4,10.3c0.6,3.9-0.6,4.8,2.8,11.1c3.3,6.2,8.2,10.5,8.2,10.5l1.7,1.2l-5.8-10.9
		c0,0-2.2-6.1-4.8-11.8C123.7,153.9,119.9,149.3,119.9,149.3z"/>
	<path d="M130.5,158.4c0,0,2.3,8.4,4.7,13.3c2.4,4.8,8.3,12.6,8.3,12.6l1.2,1.4C144.6,185.7,140.7,164.6,130.5,158.4z"/>
	<path d="M84.6,197.5c0,0,23.2-10,29.5-11.8c6.3-1.7,21.2,0,21.2,0h3.9c0,0-9.7,2.5-20.5,4C107.8,191.2,105.9,192,84.6,197.5z"/>
	<g>
		<path class="st1" d="M150.7,185.1c-2.9,0.4-5.9,0.7-9,0.8l-2.4,0.7c-0.1,0-6.2,1.6-14.1,3c3.3,0.3,6.6,0.5,10,0.5
			c5.7,0,11.3-0.5,16.7-1.5C151.6,187.7,151.1,186.5,150.7,185.1z"/>
		<path class="st1" d="M135.2,0C82.8,0,40.1,42.7,40.1,95.1c0,10.2,1.6,20,4.6,29.2c2.2,2.8,4.5,5.8,6.5,8.6
			c5,7.1,7.7,16.6,7.7,16.6c1.6,1.4-2.9-2.2-3.8-3.2c2,3.2,4.3,6.2,6.6,9.1c2.2,0.1,4.1,0.2,5.7,0.5c-14.5-16.1-23.3-37.4-23.3-60.8
			C44.1,44.9,85,4,135.2,4s91.1,40.9,91.1,91.1c0,45.1-30.9,82.6-73.7,89.7l0.2,3.8c44.1-8.3,77.5-47,77.5-93.5
			C230.3,42.7,187.6,0,135.2,0z"/>
	</g>
	<path d="M152,186.7c-1.2-3.5-2.9-8.4-4.4-13.1c-1.6-4.9-3.4-9.5-4.8-12.7c8.4,10.2,8.7,17.9,8.7,18L152,186.7z"/>
</g>
<path d="M107.6,201.4c0,0,11.9-0.1,15.9-2.5c3.9-2.3,8.6-6.1,12.8-6.6c4.2-0.4,13.8-0.7,16.7,0c2.9,0.7-7.6,2.9-7.6,2.9
	s-6.9,0.1-10.3,1.4c-3.4,1.2-6,4.7-10.4,5.9C120.5,203.7,113,203.6,107.6,201.4z"/>
<path d="M174.9,214.9c-6.1-9.5-11.4-12.9-10.3-12l-11.4-8.2l1.7-0.8l11.7,8c0.2,0.1,6.2,4.4,11.5,11.8L174.9,214.9z"/>
<path d="M149,132.4c0,0-0.9,7.4-2.8,10.9c-1.9,3.5-3.4,3.5-4.5,10.5c-1.1,7,0.2,13.3,0.2,13.3l0.7,2l0.8-5.1l-1.1-3.8
	c0,0,0.8,0.7,1.5,1.5l0.8-4.8c0,0,2-6.2,3.3-12.3S149,132.4,149,132.4z"/>
</svg>
